…
1. Country and area
classification

Country and area classification data is used as the a link between
low-level divisions (country) and higher-level divisions (sub-regions,
regions). After loading the package, enter
Country and area classification into the console to access
this data.

library(mcmsupply)
Country_and_area_classification_inclFP2020

## # A tibble: 231 × 8
##    `Country or area`   `ISO Code` `Major area`                 Region `Developed \r\nregion` Least developed\r\nc…¹
##    <chr>                    <dbl> <chr>                        <chr>  <chr>                  <chr>                 
##  1 Afghanistan                  4 Asia                         South… No                     Yes                   
##  2 Albania                      8 Europe                       South… Yes                    No                    
##  3 Algeria                     12 Africa                       North… No                     No                    
##  4 American Samoa              16 Oceania                      Polyn… No                     No                    
##  5 Andorra                     20 Europe                       South… Yes                    No                    
##  6 Angola                      24 Africa                       Middl… No                     Yes                   
##  7 Anguilla                   660 Latin America and the Carib… Carib… No                     No                    
##  8 Antigua and Barbuda         28 Latin America and the Carib… Carib… No                     No                    
##  9 Argentina                   32 Latin America and the Carib… South… No                     No                    
## 10 Armenia                     51 Asia                         Weste… No                     No                    
## # ℹ 221 more rows
## # ℹ abbreviated name: ¹​`Least developed\r\ncountry`
## # ℹ 2 more variables: `Sub-Saharan \r\nAfrica` <chr>, FP2020 <chr>

??Country_and_area_classification_inclFP2020

1. Country names

Country names is to inform users of what countries are available at
the national and subnational administrative division in the preloaded
data of the mcmsupply package. After loading the package, enter
country_names into the console to access this data.

library(mcmsupply)
country_names

## # A tibble: 30 × 3
##    `Country names`              `National level data available` `Subnational level data available`
##    <chr>                        <chr>                           <chr>                             
##  1 Afghanistan                  Yes                             Yes                               
##  2 Benin                        Yes                             Yes                               
##  3 Burkina Faso                 Yes                             Yes                               
##  4 Cameroon                     Yes                             Yes                               
##  5 Congo                        Yes                             No                                
##  6 Democratic Republic of Congo Yes                             Yes                               
##  7 Cote d’Ivoire                Yes                             Yes                               
##  8 Ethiopia                     Yes                             Yes                               
##  9 Ghana                        Yes                             Yes                               
## 10 Guinea                       Yes                             Yes                               
## # ℹ 20 more rows
…
These are are two family planning commodity source datasets provided
in this package - one for the national level observations,
national_FPsource_data and one for the subnational level
data subnat_FPsource_data. For the national level data,
there is a vignette
calculate_FPsource_national_data_from_DHSmicrodata that
explains how the national level data was calculated using the DHS
microdata. A similar apporoach was used for the subnational data using
IPUMS data.

national_FPsource_data

## # A tibble: 2,448 × 9
## # Groups:   year, Method, Country [903]
##     year Country      Super_region   Method      average_year sector_category    proportion SE.proportion     n
##    <dbl> <chr>        <chr>          <chr>              <dbl> <chr>                   <dbl>         <dbl> <dbl>
##  1  2008 Sierra Leone Western Africa Injectables        2008. Commercial_medical    0.265         0.0297     68
##  2  2008 Sierra Leone Western Africa Injectables        2008. Other                 0.00540       0.00535     1
##  3  2008 Sierra Leone Western Africa Injectables        2008. Public                0.730         0.0310    178
##  4  2008 Sierra Leone Western Africa OC Pills           2008. Commercial_medical    0.587         0.0375    140
##  5  2008 Sierra Leone Western Africa OC Pills           2008. Other                 0.0224        0.00969     7
##  6  2008 Sierra Leone Western Africa OC Pills           2008. Public                0.390         0.0368     98
##  7  2013 Sierra Leone Western Africa Implants           2014. Commercial_medical    0.240         0.0246    166
##  8  2013 Sierra Leone Western Africa Implants           2014. Other                 0.00567       0.00322     8
##  9  2013 Sierra Leone Western Africa Implants           2014. Public                0.755         0.0248    542
## 10  2013 Sierra Leone Western Africa Injectables        2014. Commercial_medical    0.198         0.0160    336
## # ℹ 2,438 more rows

subnat_FPsource_data

## # A tibble: 13,504 × 8
##    Country  Region              Method               average_year sector_categories proportion SE.proportion     n
##    <chr>    <chr>               <chr>                       <dbl> <chr>                  <dbl>         <dbl> <int>
##  1 Zimbabwe Bulawayo            Female Sterilization        2016. Other               2.14e-11         0        NA
##  2 Zimbabwe Harare              Female Sterilization        2016. Other               1.95e-11         0        NA
##  3 Zimbabwe Manicaland          Female Sterilization        2016. Other               2.06e-11         0        NA
##  4 Zimbabwe Mashonaland Central Female Sterilization        2016. Other               5.32e-11         0        NA
##  5 Zimbabwe Mashonaland East    Female Sterilization        2016. Other               5.60e-11         0        NA
##  6 Zimbabwe Mashonaland West    Female Sterilization        2016. Other               2.12e-11         0        NA
##  7 Zimbabwe Masvingo            Female Sterilization        2016. Other               5.59e-11         0        NA
##  8 Zimbabwe Matabeleland North  Female Sterilization        2016. Other               1.93e-11         0        NA
##  9 Zimbabwe Matabeleland South  Female Sterilization        2016. Other               2.29e- 1         0.154     2
## 10 Zimbabwe Midlands            Female Sterilization        2016. Other               2.09e-11         0        NA
## # ℹ 13,494 more rows
